…
calculate_interval(classifiers,
  by_set = FALSE,
  type = "sd",
  interval = 1)
#> # A tibble: 22 × 4
#>    names                                         .mean .lower .upper
#>    <chr>                                         <dbl>  <dbl>  <dbl>
#>  1 catch22_CO_Embed2_Dist_tau_d_expfit_meandiff 0.327  0.304  0.349 
#>  2 catch22_CO_FirstMin_ac                       0.318  0.294  0.342 
#>  3 catch22_CO_HistogramAMI_even_2_5             0.358  0.308  0.408 
#>  4 catch22_CO_f1ecac                            0.344  0.332  0.357 
#>  5 catch22_CO_trev_1_num                        0.108  0.0780 0.138 
#>  6 catch22_DN_HistogramMode_10                  0.0644 0.0448 0.0841
#>  7 catch22_DN_HistogramMode_5                   0.0689 0.0582 0.0796
#>  8 catch22_DN_OutlierInclude_n_001_mdrmd        0.0637 0.0475 0.0799
#>  9 catch22_DN_OutlierInclude_p_001_mdrmd        0.08   0.0610 0.0990
#> 10 catch22_FC_LocalSimple_mean1_tauresrat       0.38   0.342  0.418 
#> # … with 12 more rows
…
